\relax 
\providecommand\hyper@newdestlabel[2]{}
\providecommand\HyperFirstAtBeginDocument{\AtBeginDocument}
\HyperFirstAtBeginDocument{\ifx\hyper@anchor\@undefined
\global\let\oldcontentsline\contentsline
\gdef\contentsline#1#2#3#4{\oldcontentsline{#1}{#2}{#3}}
\global\let\oldnewlabel\newlabel
\gdef\newlabel#1#2{\newlabelxx{#1}#2}
\gdef\newlabelxx#1#2#3#4#5#6{\oldnewlabel{#1}{{#2}{#3}}}
\AtEndDocument{\ifx\hyper@anchor\@undefined
\let\contentsline\oldcontentsline
\let\newlabel\oldnewlabel
\fi}
\fi}
\global\let\hyper@last\relax 
\gdef\HyperFirstAtBeginDocument#1{#1}
\providecommand\HyField@AuxAddToFields[1]{}
\providecommand\HyField@AuxAddToCoFields[2]{}
\@writefile{toc}{\contentsline {section}{\numberline {1}Formula}{1}{section.1}}
\@writefile{toc}{\contentsline {subsection}{\numberline {1.1}Real part}{1}{subsection.1.1}}
\newlabel{eq.normalization}{{5}{1}{Real part}{equation.1.5}{}}
\@writefile{toc}{\contentsline {subsection}{\numberline {1.2}Imaginary part}{1}{subsection.1.2}}
\@writefile{toc}{\contentsline {section}{\numberline {2}NNLO Convolution Kernel}{2}{section.2}}
\@writefile{toc}{\contentsline {subsection}{\numberline {2.1}Real part}{2}{subsection.2.1}}
\@writefile{toc}{\contentsline {subsection}{\numberline {2.2}Imaginary part}{3}{subsection.2.2}}
\@writefile{toc}{\contentsline {section}{\numberline {3}rITD data and ITD.}{3}{section.3}}
\newlabel{eq:OPE}{{33}{4}{rITD data and ITD}{equation.3.33}{}}
\@writefile{toc}{\contentsline {section}{\numberline {4}DNN representation of PDF}{4}{section.4}}
\@writefile{toc}{\contentsline {subsection}{\numberline {4.1}Real part}{4}{subsection.4.1}}
\@writefile{toc}{\contentsline {subsection}{\numberline {4.2}chi-square}{5}{subsection.4.2}}
\@writefile{toc}{\contentsline {subsection}{\numberline {4.3}Imaginary part}{7}{subsection.4.3}}
