# Fdb version 3
["pdflatex"] 1593140875 "/Users/gaoxiang/Desktop/docs/0-lat/notes_l64c64a076/0-mass_CG_kz/main.tex" "main.pdf" "main" 1593140876
  "/Users/gaoxiang/Desktop/docs/0-lat/notes_l64c64a076/0-mass_CG_kz/main.tex" 1593140859 6844 cbe54e307c6fcff54ee6e65f87c10c2c ""
  "/usr/local/texlive/2018/texmf-dist/fonts/enc/dvips/base/8r.enc" 1480098666 4850 80dc9bab7f31fb78a000ccfed0e27cab ""
  "/usr/local/texlive/2018/texmf-dist/fonts/enc/dvips/newtx/ntx-ec-tlf.enc" 1480098668 2880 847ca622ad468c3dafba6a3f9d89a636 ""
  "/usr/local/texlive/2018/texmf-dist/fonts/enc/dvips/newtx/ntx-ot1-tlf.enc" 1480098668 2083 60e36f8eac802fcaf19eabe2633b406e ""
  "/usr/local/texlive/2018/texmf-dist/fonts/map/fontname/texfonts.map" 1511824771 3332 103109f5612ad95229751940c61aada0 ""
  "/usr/local/texlive/2018/texmf-dist/fonts/tfm/adobe/times/ptmr8r.tfm" 1480098689 4408 25b74d011a4c66b7f212c0cc3c90061b ""
  "/usr/local/texlive/2018/texmf-dist/fonts/tfm/jknappen/ec/ecrm1095.tfm" 1480098696 3584 929cdff2b7a8c11bd4d49fd68cb0ae70 ""
  "/usr/local/texlive/2018/texmf-dist/fonts/tfm/public/boondox/zxxrl7z.tfm" 1480098700 740 9412be1bafb7b34037445bfb33534951 ""
  "/usr/local/texlive/2018/texmf-dist/fonts/tfm/public/cm/cmex10.tfm" 1480098701 992 662f679a0b3d2d53c1b94050fdaa3f50 ""
  "/usr/local/texlive/2018/texmf-dist/fonts/tfm/public/cm/cmr10.tfm" 1480098701 1296 45809c5a464d5f32c8f98ba97c1bb47f ""
  "/usr/local/texlive/2018/texmf-dist/fonts/tfm/public/newtx/ntx-Bold-tlf-t1.tfm" 1480098716 11296 df0d868f9b1a805765d3b6186fabc4b6 ""
  "/usr/local/texlive/2018/texmf-dist/fonts/tfm/public/newtx/ntx-Italic-tlf-t1.tfm" 1480098716 11248 6ed685677a24527e1f16958742125bbb ""
  "/usr/local/texlive/2018/texmf-dist/fonts/tfm/public/newtx/ntx-Regular-tlf-ot1.tfm" 1522271222 3012 b811eeba6ea960be3d15630ed4729937 ""
  "/usr/local/texlive/2018/texmf-dist/fonts/tfm/public/newtx/ntx-Regular-tlf-t1.tfm" 1522271222 11328 cf780b32a7213dce6b87ac963d2422e3 ""
  "/usr/local/texlive/2018/texmf-dist/fonts/tfm/public/newtx/ntxexa.tfm" 1487030464 732 730660503dd6bc64b030e3f4fe261450 ""
  "/usr/local/texlive/2018/texmf-dist/fonts/tfm/public/newtx/ntxexb.tfm" 1480098716 184 1bb8bfa5d4359a748f36b63c1beaa705 ""
  "/usr/local/texlive/2018/texmf-dist/fonts/tfm/public/newtx/ntxexx.tfm" 1480098716 1760 f7941e7c7fabc375ade49a2a30be25a5 ""
  "/usr/local/texlive/2018/texmf-dist/fonts/tfm/public/newtx/ntxmi.tfm" 1480098716 2340 1984dc9c1acc4d1152d8ed41b52eed10 ""
  "/usr/local/texlive/2018/texmf-dist/fonts/tfm/public/newtx/ntxmi5.tfm" 1480098716 1916 75a40f1bbad42ef9b036efac948069ca ""
  "/usr/local/texlive/2018/texmf-dist/fonts/tfm/public/newtx/ntxmi7.tfm" 1480098716 1904 a933b2df2007faf9bb8f1692095e7573 ""
  "/usr/local/texlive/2018/texmf-dist/fonts/tfm/public/newtx/ntxmia.tfm" 1513376141 3012 ce323f04e3ba405f436b51e93ab5e826 ""
  "/usr/local/texlive/2018/texmf-dist/fonts/tfm/public/newtx/ntxsy.tfm" 1496620201 2012 56f863302ceeeff46cad50f046b53d1a ""
  "/usr/local/texlive/2018/texmf-dist/fonts/tfm/public/newtx/ntxsy5.tfm" 1496620201 2012 48bd6e74f0bccec79504550acc1e1855 ""
  "/usr/local/texlive/2018/texmf-dist/fonts/tfm/public/newtx/ntxsy7.tfm" 1496620201 2012 b872bf2c7642d94bbc44c75b828c3bd9 ""
  "/usr/local/texlive/2018/texmf-dist/fonts/tfm/public/newtx/ntxsyc.tfm" 1480098716 1000 87e2e76aa7620cce3ce133af7d90e5a8 ""
  "/usr/local/texlive/2018/texmf-dist/fonts/tfm/public/newtx/ntxsym.tfm" 1480098716 1564 5d77e9127cd85e7b6288fdceb71d638e ""
  "/usr/local/texlive/2018/texmf-dist/fonts/tfm/public/newtx/ntxsyralt.tfm" 1480098716 728 f8e755b32350f482171088bd2e6eab40 ""
  "/usr/local/texlive/2018/texmf-dist/fonts/tfm/public/newtx/rntxmi.tfm" 1480098716 736 0e9c9fd6c2563198cc8c257313ab0c79 ""
  "/usr/local/texlive/2018/texmf-dist/fonts/tfm/public/newtx/rntxmi7.tfm" 1480098716 896 91e13d20fa38e1a374d5254dcc312877 ""
  "/usr/local/texlive/2018/texmf-dist/fonts/tfm/public/newtx/rtxmi7.tfm" 1480098716 1088 e731ec917e7fbefc196a97d65fa4cf45 ""
  "/usr/local/texlive/2018/texmf-dist/fonts/tfm/public/newtx/rtxmio.tfm" 1480098716 992 203a24d12da03e25f779f1849ff731b7 ""
  "/usr/local/texlive/2018/texmf-dist/fonts/tfm/public/newtx/txex-bar.tfm" 1487030464 872 42a11c392ad05634fee0c67e353926cf ""
  "/usr/local/texlive/2018/texmf-dist/fonts/tfm/public/newtx/txsys.tfm" 1496870568 1640 30964e83d23f02b0afbb9fb037225d2f ""
  "/usr/local/texlive/2018/texmf-dist/fonts/tfm/public/newtx/zxlr-8r.tfm" 1480098716 1220 1f989962895f912f506f6e6b509d8884 ""
  "/usr/local/texlive/2018/texmf-dist/fonts/tfm/public/rsfs/rsfs10.tfm" 1480098717 688 37338d6ab346c2f1466b29e195316aa4 ""
  "/usr/local/texlive/2018/texmf-dist/fonts/tfm/public/rsfs/rsfs5.tfm" 1480098717 684 3a51bd4fd9600428d5264cf25f04bb9a ""
  "/usr/local/texlive/2018/texmf-dist/fonts/tfm/public/rsfs/rsfs7.tfm" 1480098717 692 1b6510779f0f05e9cbf03e0f6c8361e6 ""
  "/usr/local/texlive/2018/texmf-dist/fonts/tfm/public/txfonts/rtxmi.tfm" 1480098718 1056 e2202af076e43d03fc17f87e104021b0 ""
  "/usr/local/texlive/2018/texmf-dist/fonts/tfm/public/txfonts/rtxptmr.tfm" 1480098718 4452 0fd0a792eaab7113e4d4f1b941ff0367 ""
  "/usr/local/texlive/2018/texmf-dist/fonts/tfm/public/txfonts/rtxptmri.tfm" 1480098718 4640 ce59980bcbe9e6236fab46d0b5212c7e ""
  "/usr/local/texlive/2018/texmf-dist/fonts/tfm/public/txfonts/rtxr.tfm" 1480098718 1004 c0e991f864f31f017ea4ff9e451b76d4 ""
  "/usr/local/texlive/2018/texmf-dist/fonts/tfm/public/txfonts/txmi.tfm" 1480098718 1944 f854e259cb2839e49d4aa2949544a6e1 ""
  "/usr/local/texlive/2018/texmf-dist/fonts/tfm/public/txfonts/txmia.tfm" 1480098718 1180 72784d0ee5a983fba99a0986b31b0493 ""
  "/usr/local/texlive/2018/texmf-dist/fonts/tfm/public/txfonts/txr.tfm" 1480098718 2408 aec793a3c45e495f7ad15b227c91f508 ""
  "/usr/local/texlive/2018/texmf-dist/fonts/tfm/public/txfonts/txsyb.tfm" 1480098718 988 098ca7e8cc5647b9ac21b82dbdce1f01 ""
  "/usr/local/texlive/2018/texmf-dist/fonts/tfm/public/txfonts/txsyc.tfm" 1480098718 1084 75e807e9e71f7a312e4e1187dce5e93b ""
  "/usr/local/texlive/2018/texmf-dist/fonts/type1/public/newtx/rntxmi7.pfb" 1480098744 15929 f4ad36d9b7ab28e7323976b6fab0ef97 ""
  "/usr/local/texlive/2018/texmf-dist/fonts/type1/public/newtx/rtxmi7.pfb" 1480098744 20809 295e62a70aef33bc9d69f2d8b5d5c545 ""
  "/usr/local/texlive/2018/texmf-dist/fonts/type1/public/newtx/txsys.pfb" 1496620201 43662 caa6b1a15a692b245428edef9d4a3ed2 ""
  "/usr/local/texlive/2018/texmf-dist/fonts/type1/public/tex-gyre/qtmb.pfb" 1480098745 131776 4be3e220f990dc716f91bb7965c09237 ""
  "/usr/local/texlive/2018/texmf-dist/fonts/type1/public/tex-gyre/qtmr.pfb" 1480098745 133302 8dca243a80ecf4cfe00077d4bd995bd7 ""
  "/usr/local/texlive/2018/texmf-dist/fonts/type1/public/tex-gyre/qtmri.pfb" 1480098745 129669 aaf12ebd0b807d452087fc34bde5bd7d ""
  "/usr/local/texlive/2018/texmf-dist/fonts/type1/public/txfonts/rtxmi.pfb" 1480098746 13806 49b888f4605a088e66b9eb4fee320a6e ""
  "/usr/local/texlive/2018/texmf-dist/fonts/type1/public/txfonts/rtxr.pfb" 1480098746 6339 e2b78706efdc360ee6aec9b6e20211a7 ""
  "/usr/local/texlive/2018/texmf-dist/fonts/type1/urw/times/utmri8a.pfb" 1480098746 45458 a3faba884469519614ca56ba5f6b1de1 ""
  "/usr/local/texlive/2018/texmf-dist/fonts/vf/public/newtx/ntxmi.vf" 1480098768 1476 6240e7a54dc544d136187548d391217e ""
  "/usr/local/texlive/2018/texmf-dist/fonts/vf/public/newtx/ntxmi7.vf" 1480098768 1548 97ea67a1f41ee19e5138cfb4ceaf537f ""
  "/usr/local/texlive/2018/texmf-dist/fonts/vf/public/newtx/ntxmia.vf" 1513376141 2204 9f6c8b4708d8f766df31173a114bb8d7 ""
  "/usr/local/texlive/2018/texmf-dist/fonts/vf/public/newtx/ntxsy7.vf" 1496620201 1764 425418e1afcb32a2a62c4ea285958146 ""
  "/usr/local/texlive/2018/texmf-dist/fonts/vf/public/txfonts/txmi.vf" 1480098769 960 cfcc9d587b40b769f64408b3ca115941 ""
  "/usr/local/texlive/2018/texmf-dist/fonts/vf/public/txfonts/txr.vf" 1480098769 904 e582cae2d8ae3f48a0a520440ebcdb51 ""
  "/usr/local/texlive/2018/texmf-dist/tex/context/base/mkii/supp-pdf.mkii" 1480098806 71627 94eb9990bed73c364d7f53f960cc8c5b ""
  "/usr/local/texlive/2018/texmf-dist/tex/generic/ifxetex/ifxetex.sty" 1480098815 1458 43ab4710dc82f3edeabecd0d099626b2 ""
  "/usr/local/texlive/2018/texmf-dist/tex/generic/kastrup/binhex.tex" 1480098815 2553 4b99aa9667b708dd355926023d705446 ""
  "/usr/local/texlive/2018/texmf-dist/tex/generic/oberdiek/gettitlestring.sty" 1480098815 8237 3b62ef1f7e2c23a328c814b3893bc11f ""
  "/usr/local/texlive/2018/texmf-dist/tex/generic/oberdiek/hobsub-generic.sty" 1522444781 185313 3e16abd014cb2c328020e45d63ed7f45 ""
  "/usr/local/texlive/2018/texmf-dist/tex/generic/oberdiek/hobsub-hyperref.sty" 1480098815 70864 bcd5b216757bd619ae692a151d90085d ""
  "/usr/local/texlive/2018/texmf-dist/tex/generic/oberdiek/ifluatex.sty" 1480098815 7324 2310d1247db0114eb4726807c8837a0e ""
  "/usr/local/texlive/2018/texmf-dist/tex/generic/xkeyval/keyval.tex" 1480098819 2725 fc34ef3ccb37ba15a640e8fca6190bca ""
  "/usr/local/texlive/2018/texmf-dist/tex/generic/xkeyval/xkeyval.tex" 1480098819 19231 26434a5656c684f5ffb1f26f98006baa ""
  "/usr/local/texlive/2018/texmf-dist/tex/generic/xkeyval/xkvutils.tex" 1480098819 7677 6f5ce7c1124cad7ec57d05b2562bd8fe ""
  "/usr/local/texlive/2018/texmf-dist/tex/latex/amsmath/amsbsy.sty" 1523134290 2211 ca7ce284ab93c8eecdc6029dc5ccbd73 ""
  "/usr/local/texlive/2018/texmf-dist/tex/latex/amsmath/amsgen.sty" 1523134290 4161 7f6eb9092061a11f87d08ed13515b48d ""
  "/usr/local/texlive/2018/texmf-dist/tex/latex/amsmath/amsmath.sty" 1523134290 84354 7292177bb735c466b78634ee4efd537e ""
  "/usr/local/texlive/2018/texmf-dist/tex/latex/amsmath/amsopn.sty" 1523134290 4116 32e6abd27229755a83a8b7f18e583890 ""
  "/usr/local/texlive/2018/texmf-dist/tex/latex/amsmath/amstext.sty" 1523134290 2432 8ff93b1137020e8f21930562a874ae66 ""
  "/usr/local/texlive/2018/texmf-dist/tex/latex/base/article.cls" 1523050425 19823 fcbc01552b07b608574cbf8e1977e0c0 ""
  "/usr/local/texlive/2018/texmf-dist/tex/latex/base/fontenc.sty" 1523050425 4573 ae83473dfe6aea3508ab88d22c4457b2 ""
  "/usr/local/texlive/2018/texmf-dist/tex/latex/base/size11.clo" 1523050425 8310 c914ded44e64c3c6e0ed92e7ac6a2004 ""
  "/usr/local/texlive/2018/texmf-dist/tex/latex/base/t1enc.def" 1523050425 10008 3208fbcdd7b3f5dd0dda02e6507bf38c ""
  "/usr/local/texlive/2018/texmf-dist/tex/latex/base/textcomp.sty" 1523050425 16156 c88fab7ab9716ccedc3dc1fa0f1f22da ""
  "/usr/local/texlive/2018/texmf-dist/tex/latex/base/ts1cmr.fd" 1523050425 2433 cdefd2509a12ba58001f2024f63aae9a ""
  "/usr/local/texlive/2018/texmf-dist/tex/latex/base/ts1enc.def" 1523050425 7769 97b639552068544f7c98d557abb19f41 ""
  "/usr/local/texlive/2018/texmf-dist/tex/latex/base/ts1enc.dfu" 1523050425 4973 a0ebe45f171b33c2df4e84416140511f ""
  "/usr/local/texlive/2018/texmf-dist/tex/latex/booktabs/booktabs.sty" 1480098823 5869 94335281ffcab47f341cf07ea8220e30 ""
  "/usr/local/texlive/2018/texmf-dist/tex/latex/caption/caption.sty" 1480098823 66233 8b81cfab95a1f8fc2f0f6c89415b087a ""
  "/usr/local/texlive/2018/texmf-dist/tex/latex/caption/caption3.sty" 1480098823 64866 1ea74c5f2d1685881497f021b8f186b2 ""
  "/usr/local/texlive/2018/texmf-dist/tex/latex/carlisle/slashed.sty" 1480098823 5327 8b3c95b5f71136add36a4a0bb1507594 ""
  "/usr/local/texlive/2018/texmf-dist/tex/latex/enumitem/enumitem.sty" 1480098827 42666 6fa770e3485520a6a5f2ea7d259c8f8d ""
  "/usr/local/texlive/2018/texmf-dist/tex/latex/etoolbox/etoolbox.sty" 1518389458 43862 d90315ae4a46ef887a38b4ccba021f91 ""
  "/usr/local/texlive/2018/texmf-dist/tex/latex/fancyvrb/fancyvrb.sty" 1480098827 45360 a0833d32f1b541964596b02870342d5a ""
  "/usr/local/texlive/2018/texmf-dist/tex/latex/float/float.sty" 1480098828 6749 16d2656a1984957e674b149555f1ea1d ""
  "/usr/local/texlive/2018/texmf-dist/tex/latex/fontaxes/fontaxes.sty" 1480098829 14170 4202cf11062745283a9a5fdc97c16c48 ""
  "/usr/local/texlive/2018/texmf-dist/tex/latex/geometry/geometry.sty" 1522012985 41366 3ed245b911039f45436c2cb62a4d1e62 ""
  "/usr/local/texlive/2018/texmf-dist/tex/latex/graphics-cfg/color.cfg" 1480098830 1213 620bba36b25224fa9b7e1ccb4ecb76fd ""
  "/usr/local/texlive/2018/texmf-dist/tex/latex/graphics-cfg/graphics.cfg" 1480098830 1224 978390e9c2234eab29404bc21b268d1e ""
  "/usr/local/texlive/2018/texmf-dist/tex/latex/graphics-def/pdftex.def" 1515537368 17334 520b9b85ad8a2a48eda3f643e27a5179 ""
  "/usr/local/texlive/2018/texmf-dist/tex/latex/graphics/graphics.sty" 1523134385 15272 5a97061616e0c8b2aa79c6615ff769f4 ""
  "/usr/local/texlive/2018/texmf-dist/tex/latex/graphics/graphicx.sty" 1523134385 9063 d0a305975932762117cd1f06a582f896 ""
  "/usr/local/texlive/2018/texmf-dist/tex/latex/graphics/trig.sty" 1523134385 3977 cb9221976ed8a183afad65b59aa8629a ""
  "/usr/local/texlive/2018/texmf-dist/tex/latex/hyperref/hpdftex.def" 1518041854 51699 9069fc983fff0db91d59a15af144ad62 ""
  "/usr/local/texlive/2018/texmf-dist/tex/latex/hyperref/hyperref.sty" 1518041854 234088 2c849389d62d41c593d9f5176c4116ab ""
  "/usr/local/texlive/2018/texmf-dist/tex/latex/hyperref/nameref.sty" 1480098831 12949 81e4e808884a8f0e276b69410e234656 ""
  "/usr/local/texlive/2018/texmf-dist/tex/latex/hyperref/pd1enc.def" 1518041854 14098 4e70bf396c7c265bd8b0e5cab3fd3d4d ""
  "/usr/local/texlive/2018/texmf-dist/tex/latex/jknapltx/mathrsfs.sty" 1480098831 300 12fa6f636b617656f2810ee82cb05015 ""
  "/usr/local/texlive/2018/texmf-dist/tex/latex/jknapltx/ursfs.fd" 1480098831 548 cc4e3557704bfed27c7002773fad6c90 ""
  "/usr/local/texlive/2018/texmf-dist/tex/latex/latexconfig/epstopdf-sys.cfg" 1480098833 678 4792914a8f45be57bb98413425e4c7af ""
  "/usr/local/texlive/2018/texmf-dist/tex/latex/latexconfig/hyperref.cfg" 1480098833 235 6031e5765137be07eed51a510b2b8fb7 ""
  "/usr/local/texlive/2018/texmf-dist/tex/latex/microtype/microtype-pdftex.def" 1516054892 48846 b8c9ed2ca71a7e344e0f79f738d33d61 ""
  "/usr/local/texlive/2018/texmf-dist/tex/latex/microtype/microtype.cfg" 1516054892 24263 58b62b9b15af10c2a301a884405289a4 ""
  "/usr/local/texlive/2018/texmf-dist/tex/latex/microtype/microtype.sty" 1516054892 71031 8c1efead07338247d562f79303165b66 ""
  "/usr/local/texlive/2018/texmf-dist/tex/latex/microtype/mt-ptm.cfg" 1516054892 12391 cdf0f7aa1c8a3a34b9fbb297c96ea93d ""
  "/usr/local/texlive/2018/texmf-dist/tex/latex/natbib/natbib.sty" 1480098835 45456 1c8843383c0bd05870c45fa0ebea6cc2 ""
  "/usr/local/texlive/2018/texmf-dist/tex/latex/newtx/lmsntxsy.fd" 1480098836 826 416b85b785f5c45134306644b3ccaa8a ""
  "/usr/local/texlive/2018/texmf-dist/tex/latex/newtx/lmxntxexx.fd" 1480098836 549 70a2497c311fc8b19acb02f7607eb4e9 ""
  "/usr/local/texlive/2018/texmf-dist/tex/latex/newtx/newtxmath.sty" 1513376141 101139 188248743a632927165eab8cbedc4e40 ""
  "/usr/local/texlive/2018/texmf-dist/tex/latex/newtx/newtxtext.sty" 1522271222 8038 253ac07e6417d2c0abb163f601e66a42 ""
  "/usr/local/texlive/2018/texmf-dist/tex/latex/newtx/omlntxmi.fd" 1480098836 1919 e9d8f2f584e8bea3fa98fd6a074cab36 ""
  "/usr/local/texlive/2018/texmf-dist/tex/latex/newtx/ot1ntxtlf.fd" 1480098836 1727 c07bfcf4231cfb81feeaaf61e677108c ""
  "/usr/local/texlive/2018/texmf-dist/tex/latex/newtx/t1ntxtlf.fd" 1480098836 1697 fff932dd00a7f82bda4dacfdf1c9646b ""
  "/usr/local/texlive/2018/texmf-dist/tex/latex/newtx/untxexa.fd" 1480098836 558 91031960917530f42e0f8fc4d1db1550 ""
  "/usr/local/texlive/2018/texmf-dist/tex/latex/newtx/untxmia.fd" 1513376141 1662 2a0dc0d7a22b144d8247118f834fa225 ""
  "/usr/local/texlive/2018/texmf-dist/tex/latex/newtx/untxsyc.fd" 1480098836 558 e8967b9c8273bc0c05b993fe92a9b757 ""
  "/usr/local/texlive/2018/texmf-dist/tex/latex/newtx/untxsym.fd" 1480098836 561 d8e97a03c5c4248c2bf6d144fffb97f7 ""
  "/usr/local/texlive/2018/texmf-dist/tex/latex/newtxtt/newtxtt.sty" 1491861309 1840 4c24f8979df0018f2b112619cd56d140 ""
  "/usr/local/texlive/2018/texmf-dist/tex/latex/oberdiek/auxhook.sty" 1480098836 3834 4363110eb0ef1eb2b71c8fcbcdb6c357 ""
  "/usr/local/texlive/2018/texmf-dist/tex/latex/oberdiek/centernot.sty" 1480098836 1538 17db797fcc398536cd8bdd254b46ce0f ""
  "/usr/local/texlive/2018/texmf-dist/tex/latex/oberdiek/epstopdf-base.sty" 1480098836 12095 5337833c991d80788a43d3ce26bd1c46 ""
  "/usr/local/texlive/2018/texmf-dist/tex/latex/oberdiek/grfext.sty" 1480098836 7075 2fe3d848bba95f139de11ded085e74aa ""
  "/usr/local/texlive/2018/texmf-dist/tex/latex/oberdiek/kvoptions.sty" 1480098836 22417 1d9df1eb66848aa31b18a593099cf45c ""
  "/usr/local/texlive/2018/texmf-dist/tex/latex/oberdiek/rerunfilecheck.sty" 1480098836 9581 023642318cef9f4677efe364de1e2a27 ""
  "/usr/local/texlive/2018/texmf-dist/tex/latex/tools/multicol.sty" 1523050425 30628 652b36ef08363b32730b448cf0e44496 ""
  "/usr/local/texlive/2018/texmf-dist/tex/latex/tools/verbatim.sty" 1523050425 7262 cf84171354dfa1855684c0946ff000f1 ""
  "/usr/local/texlive/2018/texmf-dist/tex/latex/type1cm/type1cm.sty" 1480098841 7035 e7cee88575f4e65f8bf3918ccb2aa80e ""
  "/usr/local/texlive/2018/texmf-dist/tex/latex/url/url.sty" 1480098842 12796 8edb7d69a20b857904dd0ea757c14ec9 ""
  "/usr/local/texlive/2018/texmf-dist/tex/latex/xcolor/xcolor.sty" 1480098843 55589 34128738f682d033422ca125f82e5d62 ""
  "/usr/local/texlive/2018/texmf-dist/tex/latex/xkeyval/xkeyval.sty" 1480098843 4962 9c1069474ff71dbc47d5006555e352d3 ""
  "/usr/local/texlive/2018/texmf-dist/web2c/texmf.cnf" 1522066949 33362 cf75436e19743e94a92a6b1b9183c434 ""
  "/usr/local/texlive/2018/texmf-var/fonts/map/pdftex/updmap/pdftex.map" 1523934492 2717033 f61a5287d9c22a39a74f1979fe3f905c ""
  "/usr/local/texlive/2018/texmf-var/web2c/pdftex/pdflatex.fmt" 1547866006 4220280 659b91cd56c4990a703eb67a3ab8c67a ""
  "/usr/local/texlive/2018/texmf.cnf" 1523934483 577 0b39adfd7c93507ff20c9c14c2f1a33f ""
  "elegantpaper.cls" 1586826127 2077 ca2257119d154e9639b60ee578d1fdc9 ""
  "figure/l64c64a076_Effmass_CG45_bxp00-100_PX0PY0PZ0.pdf" 1590154330 23110 73872ad6ab1cba98a56dfa002f389b9d ""
  "figure/l64c64a076_Effmass_CG45_bxp00-100_PX1PY0PZ0.pdf" 1590154331 23659 b4ee23c2b36e4ae8366e62b9814ffb76 ""
  "figure/l64c64a076_Effmass_CG45_bxp00-100_PX2PY0PZ0.pdf" 1590154333 22863 64c328ebed60f42ce06c3563bca4a921 ""
  "figure/l64c64a076_Effmass_CG45_bxp00-100_PX3PY0PZ0.pdf" 1590154335 22655 7df070af39a76a51f73014ce8bb328d9 ""
  "figure/l64c64a076_Effmass_CG45_bxp00-100_PX4PY0PZ0.pdf" 1590154336 22871 3544060b654b8e2cbd5c60532b509f58 ""
  "figure/l64c64a076_Effmass_CG45_bxp00-100_PX5PY0PZ0.pdf" 1590154338 22501 af6a8e4e6fb2fbcf3475e0782766e12f ""
  "figure/l64c64a076_Effmass_CG45_bxp00-100_PX6PY0PZ0.pdf" 1590154339 22743 e893f7156ac5c2e8deb405cb14486fb0 ""
  "figure/l64c64a076_Effmass_CG45_bxp00-100_PX7PY0PZ0.pdf" 1590154340 22802 05ac8b59ac370951f12b44b6f3e43945 ""
  "figure/l64c64a076_Effmass_CG45_bxp00-100_PX8PY0PZ0.pdf" 1590154342 22909 7f4d5cb5c2231e4434493d015b37230c ""
  "figure/l64c64a076_Effmass_CG45_bxp00-100_PX9PY0PZ0.pdf" 1590154343 22917 77f9eb80cae6b15195f06b94eab9d3dc ""
  "figure/l64c64a076_Effmass_bxp00_PX0PY0PZ0.pdf" 1589942111 24799 ba72d4cdc01b7162fac9d1b572b5a423 ""
  "figure/l64c64a076_Effmass_bxp00_PX1PY0PZ0.pdf" 1589942115 24949 569cb71673e2e03b3082340db65b92bb ""
  "figure/l64c64a076_PX0PY0PZ0.pdf" 1586825733 36355 3af96729a493a25b7a2ced3180c1391e ""
  "figure/l64c64a076_PX0PY0PZ0_inversion_timing.pdf" 1586826778 16918 63dff30617b6b524452001ea59530c29 ""
  "figure/l64c64a076_PX0PY0PZ0_pion_mass.pdf" 1586826751 16461 70f8ec305cef0e1d77b000e3743e9b29 ""
  "figure/l64c64a076_pion_Effmass_CG45_bxp2_5_6_PX0PY0PZ0.pdf" 1590662189 16660 e1c9de3b382cd3c6ecc39b0a75a1ba48 ""
  "figure/l64c64a076_pion_Effmass_CG45_bxp2_5_6_PX1PY0PZ0.pdf" 1590662190 17322 e2a7514cc4f03425a5c597df88dd5c5a ""
  "figure/l64c64a076_pion_Effmass_CG45_bxp2_5_6_PX2PY0PZ0.pdf" 1590662191 16119 2b1769775b163e088cb5168331e7c753 ""
  "figure/l64c64a076_pion_Effmass_CG45_bxp2_5_6_PX3PY0PZ0.pdf" 1590662193 16262 aabd31a5067acaa1aaf296b1ae5a66d1 ""
  "figure/l64c64a076_pion_Effmass_CG45_bxp2_5_6_PX4PY0PZ0.pdf" 1590662194 16428 9c55bb96151fce6de6e9fa8ce31c74d0 ""
  "figure/l64c64a076_pion_Effmass_CG45_bxp2_5_6_PX5PY0PZ0.pdf" 1590662195 16007 5967e83b1fde90c9c92a96727d856e66 ""
  "figure/l64c64a076_pion_Effmass_CG45_bxp2_5_6_PX6PY0PZ0.pdf" 1590662196 16389 17c30d07436ab77b2e10158e5d72fd95 ""
  "figure/l64c64a076_pion_Effmass_CG45_bxp2_5_6_PX7PY0PZ0.pdf" 1590662197 16504 fd1ec88111d9ba6fe1db38b9412d2e73 ""
  "figure/l64c64a076_pion_Effmass_CG45_bxp2_5_6_PX8PY0PZ0.pdf" 1590662198 16276 f4fa6e2bb3139ee94b751607a7478ed8 ""
  "figure/l64c64a076_pion_Effmass_CG45_bxp2_5_6_PX9PY0PZ0.pdf" 1590662199 16655 c956f58eaafe7b1f6fee89c2b696d831 ""
  "figure/l64c64a076_proton_Effmass_CG45_bxp00-100_PX0PY0PZ0.pdf" 1590154193 23065 2253c7d8aa3a57b521a1850d92212b46 ""
  "figure/l64c64a076_proton_Effmass_CG45_bxp00-100_PX1PY0PZ0.pdf" 1590154177 22956 ca981cfc817438ebf6275cf0ac6412e9 ""
  "figure/l64c64a076_proton_Effmass_CG45_bxp00-100_PX2PY0PZ0.pdf" 1590154148 23387 0a6f48bfdc0bfcfbe68e7d9627b3b2f3 ""
  "figure/l64c64a076_proton_Effmass_CG45_bxp00-100_PX3PY0PZ0.pdf" 1590154128 23324 e416da9d41767167da9f014b1a6145aa ""
  "figure/l64c64a076_proton_Effmass_CG45_bxp00-100_PX4PY0PZ0.pdf" 1590154097 23852 55b4d6e0d5ca3f2b82bbc216709f0b15 ""
  "figure/l64c64a076_proton_Effmass_CG45_bxp00-100_PX5PY0PZ0.pdf" 1590154058 22496 cd73883ede36168aeadc32246c873cd4 ""
  "figure/l64c64a076_proton_Effmass_CG45_bxp00-100_PX6PY0PZ0.pdf" 1590153987 22835 f1072b5eccda470e80d9c184d1c5e41d ""
  "figure/l64c64a076_proton_Effmass_CG45_bxp00-100_PX7PY0PZ0.pdf" 1590153943 22305 2b4294fbbe287f89c79f732b74837167 ""
  "figure/l64c64a076_proton_Effmass_CG45_bxp00-100_PX8PY0PZ0.pdf" 1590153899 22358 2970efd7953535e9f497ffa5882478de ""
  "figure/l64c64a076_proton_Effmass_CG45_bxp00-100_PX9PY0PZ0.pdf" 1590153150 22773 4588a12dfcf4be5fd1786baa79f1988d ""
  "figure/l64c64a076_proton_Effmass_CG45_bxp2_5_6_PX0PY0PZ0.pdf" 1590662201 16644 1e20219ec1cbbd5627ab19e25363bb36 ""
  "figure/l64c64a076_proton_Effmass_CG45_bxp2_5_6_PX1PY0PZ0.pdf" 1590662202 16839 aef40553c3871d2097a4e39bd9b18af3 ""
  "figure/l64c64a076_proton_Effmass_CG45_bxp2_5_6_PX2PY0PZ0.pdf" 1590662203 16494 cb33f7680b7216cad15b12d1536a1c67 ""
  "figure/l64c64a076_proton_Effmass_CG45_bxp2_5_6_PX3PY0PZ0.pdf" 1590662204 16284 d28038389b03e977d5aa17fd08e2450f ""
  "figure/l64c64a076_proton_Effmass_CG45_bxp2_5_6_PX4PY0PZ0.pdf" 1590662205 16768 06471d0b00c01d0df17888db796110fd ""
  "figure/l64c64a076_proton_Effmass_CG45_bxp2_5_6_PX5PY0PZ0.pdf" 1590662206 16450 35eef7122c0b8f1b952dbfcb96d488ca ""
  "figure/l64c64a076_proton_Effmass_CG45_bxp2_5_6_PX6PY0PZ0.pdf" 1590662207 16918 332534734e43bb3e8c47170f7e5aa4fb ""
  "figure/l64c64a076_proton_Effmass_CG45_bxp2_5_6_PX7PY0PZ0.pdf" 1590662209 16334 13583f136380b3ecb90c539101224980 ""
  "figure/l64c64a076_proton_Effmass_CG45_bxp2_5_6_PX8PY0PZ0.pdf" 1590662210 16247 77fa12fcf936d35c0070e35445385376 ""
  "figure/l64c64a076_proton_Effmass_CG45_bxp2_5_6_PX9PY0PZ0.pdf" 1590662211 16209 b873a32e34776f6ab63ee78c70a218e3 ""
  "figure/l64c64a076_proton_Effmass_bxp00_PX0PY0PZ0.pdf" 1589946169 26021 7611637e9be012356e5a492b6149df1b ""
  "figure/l64c64a076_proton_Effmass_bxp00_PX1PY0PZ0.pdf" 1589946170 25874 6d7dd7a21eed54edc99804b483adaf5f ""
  "main.aux" 1593140876 4597 c9d9446b2328f076e51de3d9c6ddaf0b ""
  "main.out" 1593140876 331 d8a1ac13a4681b9d7399c66e52ab55a3 ""
  "main.tex" 1593140859 6844 cbe54e307c6fcff54ee6e65f87c10c2c ""
  (generated)
  "main.log"
  "main.pdf"
  "main.out"
  "main.aux"
