\relax 
\providecommand\hyper@newdestlabel[2]{}
\providecommand\HyperFirstAtBeginDocument{\AtBeginDocument}
\HyperFirstAtBeginDocument{\ifx\hyper@anchor\@undefined
\global\let\oldcontentsline\contentsline
\gdef\contentsline#1#2#3#4{\oldcontentsline{#1}{#2}{#3}}
\global\let\oldnewlabel\newlabel
\gdef\newlabel#1#2{\newlabelxx{#1}#2}
\gdef\newlabelxx#1#2#3#4#5#6{\oldnewlabel{#1}{{#2}{#3}}}
\AtEndDocument{\ifx\hyper@anchor\@undefined
\let\contentsline\oldcontentsline
\let\newlabel\oldnewlabel
\fi}
\fi}
\global\let\hyper@last\relax 
\gdef\HyperFirstAtBeginDocument#1{#1}
\providecommand\HyField@AuxAddToFields[1]{}
\providecommand\HyField@AuxAddToCoFields[2]{}
\newlabel{eq.normalization}{{5}{1}{}{equation.0.5}{}}
\@writefile{toc}{\contentsline {section}{\numberline {1}NNLO Convolution Kernel}{1}{section.1}}
\@writefile{toc}{\contentsline {section}{\numberline {2}rITD data and ITD.}{3}{section.2}}
\newlabel{eq:OPE}{{33}{3}{rITD data and ITD}{equation.2.33}{}}
\@writefile{toc}{\contentsline {section}{\numberline {3}DNN representation of PDF}{4}{section.3}}
\@writefile{toc}{\contentsline {subsection}{\numberline {3.1}chi-square}{4}{subsection.3.1}}
