\relax 
\providecommand\hyper@newdestlabel[2]{}
\providecommand\HyperFirstAtBeginDocument{\AtBeginDocument}
\HyperFirstAtBeginDocument{\ifx\hyper@anchor\@undefined
\global\let\oldcontentsline\contentsline
\gdef\contentsline#1#2#3#4{\oldcontentsline{#1}{#2}{#3}}
\global\let\oldnewlabel\newlabel
\gdef\newlabel#1#2{\newlabelxx{#1}#2}
\gdef\newlabelxx#1#2#3#4#5#6{\oldnewlabel{#1}{{#2}{#3}}}
\AtEndDocument{\ifx\hyper@anchor\@undefined
\let\contentsline\oldcontentsline
\let\newlabel\oldnewlabel
\fi}
\fi}
\global\let\hyper@last\relax 
\gdef\HyperFirstAtBeginDocument#1{#1}
\providecommand\HyField@AuxAddToFields[1]{}
\providecommand\HyField@AuxAddToCoFields[2]{}
\@writefile{toc}{\contentsline {section}{\numberline {1}Formula}{1}{section.1}}
\@writefile{toc}{\contentsline {subsection}{\numberline {1.1}Real part}{1}{subsection.1.1}}
\@writefile{toc}{\contentsline {subsection}{\numberline {1.2}Imaginary part}{1}{subsection.1.2}}
\@writefile{toc}{\contentsline {section}{\numberline {2}NNLO Convolution Kernel}{1}{section.2}}
\@writefile{toc}{\contentsline {subsection}{\numberline {2.1}Real part}{1}{subsection.2.1}}
\@writefile{toc}{\contentsline {subsection}{\numberline {2.2}Imaginary part}{3}{subsection.2.2}}
\@writefile{toc}{\contentsline {section}{\numberline {3}DNN representation of PDF}{3}{section.3}}
\@writefile{toc}{\contentsline {subsection}{\numberline {3.1}Real part}{3}{subsection.3.1}}
\@writefile{toc}{\contentsline {subsection}{\numberline {3.2}chi-square}{4}{subsection.3.2}}
\@writefile{toc}{\contentsline {subsection}{\numberline {3.3}Imaginary part}{6}{subsection.3.3}}
