PWD /Users/gaoxiang/Desktop/docs/0-lat/notes_l64c64a076/0-mass_CG_kz
INPUT /usr/local/texlive/2018/texmf.cnf
INPUT /usr/local/texlive/2018/texmf-dist/web2c/texmf.cnf
INPUT /usr/local/texlive/2018/texmf-var/web2c/pdftex/pdflatex.fmt
INPUT /Users/gaoxiang/Desktop/docs/0-lat/notes_l64c64a076/0-mass_CG_kz/main.tex
OUTPUT main.log
INPUT elegantpaper.cls
INPUT elegantpaper.cls
INPUT /usr/local/texlive/2018/texmf-dist/tex/latex/base/article.cls
INPUT /usr/local/texlive/2018/texmf-dist/tex/latex/base/article.cls
INPUT /usr/local/texlive/2018/texmf-dist/tex/latex/base/size11.clo
INPUT /usr/local/texlive/2018/texmf-dist/tex/latex/base/size11.clo
INPUT /usr/local/texlive/2018/texmf-dist/fonts/map/fontname/texfonts.map
INPUT /usr/local/texlive/2018/texmf-dist/fonts/tfm/public/cm/cmr10.tfm
INPUT /usr/local/texlive/2018/texmf-dist/tex/latex/base/fontenc.sty
INPUT /usr/local/texlive/2018/texmf-dist/tex/latex/base/fontenc.sty
INPUT /usr/local/texlive/2018/texmf-dist/tex/latex/base/t1enc.def
INPUT /usr/local/texlive/2018/texmf-dist/tex/latex/base/t1enc.def
INPUT /usr/local/texlive/2018/texmf-dist/fonts/tfm/jknappen/ec/ecrm1095.tfm
INPUT /usr/local/texlive/2018/texmf-dist/tex/latex/newtx/newtxtext.sty
INPUT /usr/local/texlive/2018/texmf-dist/tex/latex/newtx/newtxtext.sty
INPUT /usr/local/texlive/2018/texmf-dist/tex/latex/fontaxes/fontaxes.sty
INPUT /usr/local/texlive/2018/texmf-dist/tex/latex/fontaxes/fontaxes.sty
INPUT /usr/local/texlive/2018/texmf-dist/tex/latex/xkeyval/xkeyval.sty
INPUT /usr/local/texlive/2018/texmf-dist/tex/latex/xkeyval/xkeyval.sty
INPUT /usr/local/texlive/2018/texmf-dist/tex/generic/xkeyval/xkeyval.tex
INPUT /usr/local/texlive/2018/texmf-dist/tex/generic/xkeyval/xkvutils.tex
INPUT /usr/local/texlive/2018/texmf-dist/tex/generic/xkeyval/keyval.tex
INPUT /usr/local/texlive/2018/texmf-dist/tex/latex/etoolbox/etoolbox.sty
INPUT /usr/local/texlive/2018/texmf-dist/tex/latex/etoolbox/etoolbox.sty
INPUT /usr/local/texlive/2018/texmf-dist/tex/latex/base/fontenc.sty
INPUT /usr/local/texlive/2018/texmf-dist/tex/latex/base/fontenc.sty
INPUT /usr/local/texlive/2018/texmf-dist/tex/latex/base/t1enc.def
INPUT /usr/local/texlive/2018/texmf-dist/tex/latex/base/t1enc.def
INPUT /usr/local/texlive/2018/texmf-dist/tex/latex/base/textcomp.sty
INPUT /usr/local/texlive/2018/texmf-dist/tex/latex/base/textcomp.sty
INPUT /usr/local/texlive/2018/texmf-dist/tex/latex/base/ts1enc.def
INPUT /usr/local/texlive/2018/texmf-dist/tex/latex/base/ts1enc.def
INPUT /usr/local/texlive/2018/texmf-dist/tex/latex/base/ts1enc.dfu
INPUT /usr/local/texlive/2018/texmf-dist/tex/latex/base/ts1enc.dfu
INPUT /usr/local/texlive/2018/texmf-dist/tex/latex/newtx/newtxmath.sty
INPUT /usr/local/texlive/2018/texmf-dist/tex/latex/newtx/newtxmath.sty
INPUT /usr/local/texlive/2018/texmf-dist/tex/latex/amsmath/amsmath.sty
INPUT /usr/local/texlive/2018/texmf-dist/tex/latex/amsmath/amsmath.sty
INPUT /usr/local/texlive/2018/texmf-dist/tex/latex/amsmath/amstext.sty
INPUT /usr/local/texlive/2018/texmf-dist/tex/latex/amsmath/amstext.sty
INPUT /usr/local/texlive/2018/texmf-dist/tex/latex/amsmath/amsgen.sty
INPUT /usr/local/texlive/2018/texmf-dist/tex/latex/amsmath/amsgen.sty
INPUT /usr/local/texlive/2018/texmf-dist/tex/latex/amsmath/amsbsy.sty
INPUT /usr/local/texlive/2018/texmf-dist/tex/latex/amsmath/amsbsy.sty
INPUT /usr/local/texlive/2018/texmf-dist/tex/latex/amsmath/amsopn.sty
INPUT /usr/local/texlive/2018/texmf-dist/tex/latex/amsmath/amsopn.sty
INPUT /usr/local/texlive/2018/texmf-dist/tex/generic/ifxetex/ifxetex.sty
INPUT /usr/local/texlive/2018/texmf-dist/tex/generic/ifxetex/ifxetex.sty
INPUT /usr/local/texlive/2018/texmf-dist/tex/generic/oberdiek/ifluatex.sty
INPUT /usr/local/texlive/2018/texmf-dist/tex/generic/oberdiek/ifluatex.sty
INPUT /usr/local/texlive/2018/texmf-dist/tex/latex/oberdiek/centernot.sty
INPUT /usr/local/texlive/2018/texmf-dist/tex/latex/oberdiek/centernot.sty
INPUT /usr/local/texlive/2018/texmf-dist/tex/generic/kastrup/binhex.tex
INPUT /usr/local/texlive/2018/texmf-dist/tex/generic/kastrup/binhex.tex
INPUT /usr/local/texlive/2018/texmf-dist/tex/latex/newtxtt/newtxtt.sty
INPUT /usr/local/texlive/2018/texmf-dist/tex/latex/newtxtt/newtxtt.sty
INPUT /usr/local/texlive/2018/texmf-dist/tex/latex/base/fontenc.sty
INPUT /usr/local/texlive/2018/texmf-dist/tex/latex/base/fontenc.sty
INPUT /usr/local/texlive/2018/texmf-dist/tex/latex/base/t1enc.def
INPUT /usr/local/texlive/2018/texmf-dist/tex/latex/base/t1enc.def
INPUT /usr/local/texlive/2018/texmf-dist/tex/latex/xkeyval/xkeyval.sty
INPUT /usr/local/texlive/2018/texmf-dist/tex/latex/type1cm/type1cm.sty
INPUT /usr/local/texlive/2018/texmf-dist/tex/latex/type1cm/type1cm.sty
INPUT /usr/local/texlive/2018/texmf-dist/tex/latex/microtype/microtype.sty
INPUT /usr/local/texlive/2018/texmf-dist/tex/latex/microtype/microtype.sty
INPUT /usr/local/texlive/2018/texmf-dist/tex/latex/microtype/microtype-pdftex.def
INPUT /usr/local/texlive/2018/texmf-dist/tex/latex/microtype/microtype-pdftex.def
INPUT /usr/local/texlive/2018/texmf-dist/tex/latex/microtype/microtype.cfg
INPUT /usr/local/texlive/2018/texmf-dist/tex/latex/microtype/microtype.cfg
INPUT /usr/local/texlive/2018/texmf-dist/tex/latex/microtype/microtype.cfg
INPUT /usr/local/texlive/2018/texmf-dist/tex/latex/booktabs/booktabs.sty
INPUT /usr/local/texlive/2018/texmf-dist/tex/latex/booktabs/booktabs.sty
INPUT /usr/local/texlive/2018/texmf-dist/tex/latex/tools/multicol.sty
INPUT /usr/local/texlive/2018/texmf-dist/tex/latex/tools/multicol.sty
INPUT /usr/local/texlive/2018/texmf-dist/tex/latex/xcolor/xcolor.sty
INPUT /usr/local/texlive/2018/texmf-dist/tex/latex/xcolor/xcolor.sty
INPUT /usr/local/texlive/2018/texmf-dist/tex/latex/graphics-cfg/color.cfg
INPUT /usr/local/texlive/2018/texmf-dist/tex/latex/graphics-cfg/color.cfg
INPUT /usr/local/texlive/2018/texmf-dist/tex/latex/graphics-def/pdftex.def
INPUT /usr/local/texlive/2018/texmf-dist/tex/latex/graphics-def/pdftex.def
INPUT /usr/local/texlive/2018/texmf-dist/tex/latex/graphics/graphicx.sty
INPUT /usr/local/texlive/2018/texmf-dist/tex/latex/graphics/graphicx.sty
INPUT /usr/local/texlive/2018/texmf-dist/tex/latex/graphics/graphics.sty
INPUT /usr/local/texlive/2018/texmf-dist/tex/latex/graphics/graphics.sty
INPUT /usr/local/texlive/2018/texmf-dist/tex/latex/graphics/trig.sty
INPUT /usr/local/texlive/2018/texmf-dist/tex/latex/graphics/trig.sty
INPUT /usr/local/texlive/2018/texmf-dist/tex/latex/graphics-cfg/graphics.cfg
INPUT /usr/local/texlive/2018/texmf-dist/tex/latex/graphics-cfg/graphics.cfg
INPUT /usr/local/texlive/2018/texmf-dist/tex/latex/fancyvrb/fancyvrb.sty
INPUT /usr/local/texlive/2018/texmf-dist/tex/latex/fancyvrb/fancyvrb.sty
INPUT /usr/local/texlive/2018/texmf-dist/tex/latex/caption/caption.sty
INPUT /usr/local/texlive/2018/texmf-dist/tex/latex/caption/caption.sty
INPUT /usr/local/texlive/2018/texmf-dist/tex/latex/caption/caption3.sty
INPUT /usr/local/texlive/2018/texmf-dist/tex/latex/caption/caption3.sty
INPUT /usr/local/texlive/2018/texmf-dist/tex/latex/enumitem/enumitem.sty
INPUT /usr/local/texlive/2018/texmf-dist/tex/latex/enumitem/enumitem.sty
INPUT /usr/local/texlive/2018/texmf-dist/tex/latex/natbib/natbib.sty
INPUT /usr/local/texlive/2018/texmf-dist/tex/latex/natbib/natbib.sty
INPUT /usr/local/texlive/2018/texmf-dist/tex/latex/hyperref/hyperref.sty
INPUT /usr/local/texlive/2018/texmf-dist/tex/latex/hyperref/hyperref.sty
INPUT /usr/local/texlive/2018/texmf-dist/tex/generic/oberdiek/hobsub-hyperref.sty
INPUT /usr/local/texlive/2018/texmf-dist/tex/generic/oberdiek/hobsub-hyperref.sty
INPUT /usr/local/texlive/2018/texmf-dist/tex/generic/oberdiek/hobsub-hyperref.sty
INPUT /usr/local/texlive/2018/texmf-dist/tex/generic/oberdiek/hobsub-generic.sty
INPUT /usr/local/texlive/2018/texmf-dist/tex/generic/oberdiek/hobsub-generic.sty
INPUT /usr/local/texlive/2018/texmf-dist/tex/latex/oberdiek/auxhook.sty
INPUT /usr/local/texlive/2018/texmf-dist/tex/latex/oberdiek/auxhook.sty
INPUT /usr/local/texlive/2018/texmf-dist/tex/latex/oberdiek/kvoptions.sty
INPUT /usr/local/texlive/2018/texmf-dist/tex/latex/oberdiek/kvoptions.sty
INPUT /usr/local/texlive/2018/texmf-dist/tex/latex/hyperref/pd1enc.def
INPUT /usr/local/texlive/2018/texmf-dist/tex/latex/hyperref/pd1enc.def
INPUT /usr/local/texlive/2018/texmf-dist/tex/latex/latexconfig/hyperref.cfg
INPUT /usr/local/texlive/2018/texmf-dist/tex/latex/latexconfig/hyperref.cfg
INPUT /usr/local/texlive/2018/texmf-dist/tex/latex/url/url.sty
INPUT /usr/local/texlive/2018/texmf-dist/tex/latex/url/url.sty
INPUT /usr/local/texlive/2018/texmf-dist/tex/latex/hyperref/hpdftex.def
INPUT /usr/local/texlive/2018/texmf-dist/tex/latex/hyperref/hpdftex.def
INPUT /usr/local/texlive/2018/texmf-dist/tex/latex/oberdiek/rerunfilecheck.sty
INPUT /usr/local/texlive/2018/texmf-dist/tex/latex/oberdiek/rerunfilecheck.sty
INPUT /usr/local/texlive/2018/texmf-dist/tex/latex/geometry/geometry.sty
INPUT /usr/local/texlive/2018/texmf-dist/tex/latex/geometry/geometry.sty
INPUT /usr/local/texlive/2018/texmf-dist/tex/latex/jknapltx/mathrsfs.sty
INPUT /usr/local/texlive/2018/texmf-dist/tex/latex/jknapltx/mathrsfs.sty
INPUT /usr/local/texlive/2018/texmf-dist/tex/latex/tools/verbatim.sty
INPUT /usr/local/texlive/2018/texmf-dist/tex/latex/tools/verbatim.sty
INPUT /usr/local/texlive/2018/texmf-dist/tex/latex/float/float.sty
INPUT /usr/local/texlive/2018/texmf-dist/tex/latex/float/float.sty
INPUT /usr/local/texlive/2018/texmf-dist/tex/latex/carlisle/slashed.sty
INPUT /usr/local/texlive/2018/texmf-dist/tex/latex/carlisle/slashed.sty
INPUT /usr/local/texlive/2018/texmf-dist/tex/latex/newtx/t1ntxtlf.fd
INPUT /usr/local/texlive/2018/texmf-dist/tex/latex/newtx/t1ntxtlf.fd
INPUT /usr/local/texlive/2018/texmf-dist/fonts/tfm/public/newtx/ntx-Regular-tlf-t1.tfm
INPUT main.aux
INPUT main.aux
OUTPUT main.aux
INPUT /usr/local/texlive/2018/texmf-dist/tex/latex/newtx/omlntxmi.fd
INPUT /usr/local/texlive/2018/texmf-dist/tex/latex/newtx/omlntxmi.fd
INPUT /usr/local/texlive/2018/texmf-dist/tex/latex/newtx/untxexa.fd
INPUT /usr/local/texlive/2018/texmf-dist/tex/latex/newtx/untxexa.fd
INPUT /usr/local/texlive/2018/texmf-dist/tex/latex/base/ts1cmr.fd
INPUT /usr/local/texlive/2018/texmf-dist/tex/latex/base/ts1cmr.fd
INPUT /usr/local/texlive/2018/texmf-dist/tex/latex/newtx/lmsntxsy.fd
INPUT /usr/local/texlive/2018/texmf-dist/tex/latex/newtx/lmsntxsy.fd
INPUT /usr/local/texlive/2018/texmf-dist/tex/latex/newtx/lmxntxexx.fd
INPUT /usr/local/texlive/2018/texmf-dist/tex/latex/newtx/lmxntxexx.fd
INPUT /usr/local/texlive/2018/texmf-dist/tex/latex/microtype/mt-ptm.cfg
INPUT /usr/local/texlive/2018/texmf-dist/tex/latex/microtype/mt-ptm.cfg
INPUT /usr/local/texlive/2018/texmf-dist/tex/context/base/mkii/supp-pdf.mkii
INPUT /usr/local/texlive/2018/texmf-dist/tex/context/base/mkii/supp-pdf.mkii
INPUT /usr/local/texlive/2018/texmf-dist/tex/latex/oberdiek/epstopdf-base.sty
INPUT /usr/local/texlive/2018/texmf-dist/tex/latex/oberdiek/epstopdf-base.sty
INPUT /usr/local/texlive/2018/texmf-dist/tex/latex/oberdiek/grfext.sty
INPUT /usr/local/texlive/2018/texmf-dist/tex/latex/oberdiek/grfext.sty
INPUT /usr/local/texlive/2018/texmf-dist/tex/latex/latexconfig/epstopdf-sys.cfg
INPUT /usr/local/texlive/2018/texmf-dist/tex/latex/latexconfig/epstopdf-sys.cfg
INPUT /usr/local/texlive/2018/texmf-dist/tex/latex/hyperref/nameref.sty
INPUT /usr/local/texlive/2018/texmf-dist/tex/latex/hyperref/nameref.sty
INPUT /usr/local/texlive/2018/texmf-dist/tex/generic/oberdiek/gettitlestring.sty
INPUT /usr/local/texlive/2018/texmf-dist/tex/generic/oberdiek/gettitlestring.sty
INPUT main.out
INPUT main.out
INPUT main.out
INPUT main.out
OUTPUT main.pdf
INPUT ./main.out
INPUT ./main.out
OUTPUT main.out
INPUT /usr/local/texlive/2018/texmf-dist/fonts/tfm/public/newtx/ntx-Regular-tlf-t1.tfm
INPUT /usr/local/texlive/2018/texmf-dist/fonts/tfm/public/newtx/ntx-Regular-tlf-t1.tfm
INPUT /usr/local/texlive/2018/texmf-dist/tex/latex/newtx/ot1ntxtlf.fd
INPUT /usr/local/texlive/2018/texmf-dist/tex/latex/newtx/ot1ntxtlf.fd
INPUT /usr/local/texlive/2018/texmf-dist/fonts/tfm/public/newtx/ntx-Regular-tlf-ot1.tfm
INPUT /usr/local/texlive/2018/texmf-dist/fonts/tfm/public/newtx/ntx-Regular-tlf-ot1.tfm
INPUT /usr/local/texlive/2018/texmf-dist/fonts/tfm/public/newtx/ntx-Regular-tlf-ot1.tfm
INPUT /usr/local/texlive/2018/texmf-dist/fonts/tfm/public/newtx/ntxmi.tfm
INPUT /usr/local/texlive/2018/texmf-dist/fonts/tfm/public/newtx/ntxmi.tfm
INPUT /usr/local/texlive/2018/texmf-dist/fonts/tfm/public/newtx/ntxmi7.tfm
INPUT /usr/local/texlive/2018/texmf-dist/fonts/tfm/public/newtx/ntxsy.tfm
INPUT /usr/local/texlive/2018/texmf-dist/fonts/tfm/public/newtx/ntxsy.tfm
INPUT /usr/local/texlive/2018/texmf-dist/fonts/tfm/public/newtx/ntxsy7.tfm
INPUT /usr/local/texlive/2018/texmf-dist/fonts/tfm/public/newtx/ntxexx.tfm
INPUT /usr/local/texlive/2018/texmf-dist/fonts/tfm/public/newtx/ntxexx.tfm
INPUT /usr/local/texlive/2018/texmf-dist/fonts/tfm/public/newtx/ntxexx.tfm
INPUT /usr/local/texlive/2018/texmf-dist/tex/latex/newtx/untxmia.fd
INPUT /usr/local/texlive/2018/texmf-dist/tex/latex/newtx/untxmia.fd
INPUT /usr/local/texlive/2018/texmf-dist/fonts/tfm/public/newtx/ntxmia.tfm
INPUT /usr/local/texlive/2018/texmf-dist/fonts/tfm/public/newtx/ntxmia.tfm
INPUT /usr/local/texlive/2018/texmf-dist/fonts/tfm/public/newtx/ntxmia.tfm
INPUT /usr/local/texlive/2018/texmf-dist/tex/latex/newtx/untxsym.fd
INPUT /usr/local/texlive/2018/texmf-dist/tex/latex/newtx/untxsym.fd
INPUT /usr/local/texlive/2018/texmf-dist/fonts/tfm/public/newtx/ntxsym.tfm
INPUT /usr/local/texlive/2018/texmf-dist/fonts/tfm/public/newtx/ntxsym.tfm
INPUT /usr/local/texlive/2018/texmf-dist/fonts/tfm/public/newtx/ntxsym.tfm
INPUT /usr/local/texlive/2018/texmf-dist/tex/latex/newtx/untxsyc.fd
INPUT /usr/local/texlive/2018/texmf-dist/tex/latex/newtx/untxsyc.fd
INPUT /usr/local/texlive/2018/texmf-dist/fonts/tfm/public/newtx/ntxsyc.tfm
INPUT /usr/local/texlive/2018/texmf-dist/fonts/tfm/public/newtx/ntxsyc.tfm
INPUT /usr/local/texlive/2018/texmf-dist/fonts/tfm/public/newtx/ntxsyc.tfm
INPUT /usr/local/texlive/2018/texmf-dist/fonts/tfm/public/newtx/ntxexa.tfm
INPUT /usr/local/texlive/2018/texmf-dist/fonts/tfm/public/newtx/ntxexa.tfm
INPUT /usr/local/texlive/2018/texmf-dist/fonts/tfm/public/newtx/ntxexa.tfm
INPUT /usr/local/texlive/2018/texmf-dist/fonts/tfm/public/cm/cmex10.tfm
INPUT /usr/local/texlive/2018/texmf-dist/fonts/tfm/public/cm/cmex10.tfm
INPUT /usr/local/texlive/2018/texmf-dist/fonts/tfm/public/cm/cmex10.tfm
INPUT /usr/local/texlive/2018/texmf-dist/tex/latex/jknapltx/ursfs.fd
INPUT /usr/local/texlive/2018/texmf-dist/tex/latex/jknapltx/ursfs.fd
INPUT /usr/local/texlive/2018/texmf-dist/fonts/tfm/public/rsfs/rsfs10.tfm
INPUT /usr/local/texlive/2018/texmf-dist/fonts/tfm/public/rsfs/rsfs10.tfm
INPUT /usr/local/texlive/2018/texmf-dist/fonts/tfm/public/rsfs/rsfs7.tfm
INPUT /usr/local/texlive/2018/texmf-dist/fonts/tfm/public/newtx/ntx-Regular-tlf-t1.tfm
INPUT /usr/local/texlive/2018/texmf-dist/fonts/tfm/public/newtx/ntx-Italic-tlf-t1.tfm
INPUT /usr/local/texlive/2018/texmf-dist/fonts/tfm/public/newtx/ntx-Regular-tlf-t1.tfm
INPUT /usr/local/texlive/2018/texmf-dist/fonts/tfm/public/newtx/ntx-Bold-tlf-t1.tfm
INPUT /usr/local/texlive/2018/texmf-dist/fonts/tfm/public/newtx/ntx-Regular-tlf-ot1.tfm
INPUT /usr/local/texlive/2018/texmf-dist/fonts/tfm/public/newtx/ntx-Regular-tlf-ot1.tfm
INPUT /usr/local/texlive/2018/texmf-dist/fonts/tfm/public/newtx/ntx-Regular-tlf-ot1.tfm
INPUT /usr/local/texlive/2018/texmf-dist/fonts/tfm/public/newtx/ntxmi.tfm
INPUT /usr/local/texlive/2018/texmf-dist/fonts/tfm/public/newtx/ntxmi7.tfm
INPUT /usr/local/texlive/2018/texmf-dist/fonts/tfm/public/newtx/ntxmi5.tfm
INPUT /usr/local/texlive/2018/texmf-dist/fonts/tfm/public/newtx/ntxsy.tfm
INPUT /usr/local/texlive/2018/texmf-dist/fonts/tfm/public/newtx/ntxsy7.tfm
INPUT /usr/local/texlive/2018/texmf-dist/fonts/tfm/public/newtx/ntxsy5.tfm
INPUT /usr/local/texlive/2018/texmf-dist/fonts/tfm/public/newtx/ntxexx.tfm
INPUT /usr/local/texlive/2018/texmf-dist/fonts/tfm/public/newtx/ntxexx.tfm
INPUT /usr/local/texlive/2018/texmf-dist/fonts/tfm/public/newtx/ntxexx.tfm
INPUT /usr/local/texlive/2018/texmf-dist/fonts/tfm/public/newtx/ntxmia.tfm
INPUT /usr/local/texlive/2018/texmf-dist/fonts/tfm/public/newtx/ntxmia.tfm
INPUT /usr/local/texlive/2018/texmf-dist/fonts/tfm/public/newtx/ntxmia.tfm
INPUT /usr/local/texlive/2018/texmf-dist/fonts/tfm/public/newtx/ntxsym.tfm
INPUT /usr/local/texlive/2018/texmf-dist/fonts/tfm/public/newtx/ntxsym.tfm
INPUT /usr/local/texlive/2018/texmf-dist/fonts/tfm/public/newtx/ntxsym.tfm
INPUT /usr/local/texlive/2018/texmf-dist/fonts/tfm/public/newtx/ntxsyc.tfm
INPUT /usr/local/texlive/2018/texmf-dist/fonts/tfm/public/newtx/ntxsyc.tfm
INPUT /usr/local/texlive/2018/texmf-dist/fonts/tfm/public/newtx/ntxsyc.tfm
INPUT /usr/local/texlive/2018/texmf-dist/fonts/tfm/public/newtx/ntxexa.tfm
INPUT /usr/local/texlive/2018/texmf-dist/fonts/tfm/public/newtx/ntxexa.tfm
INPUT /usr/local/texlive/2018/texmf-dist/fonts/tfm/public/newtx/ntxexa.tfm
INPUT /usr/local/texlive/2018/texmf-dist/fonts/tfm/public/cm/cmex10.tfm
INPUT /usr/local/texlive/2018/texmf-dist/fonts/tfm/public/cm/cmex10.tfm
INPUT /usr/local/texlive/2018/texmf-dist/fonts/tfm/public/cm/cmex10.tfm
INPUT /usr/local/texlive/2018/texmf-dist/fonts/tfm/public/rsfs/rsfs10.tfm
INPUT /usr/local/texlive/2018/texmf-dist/fonts/tfm/public/rsfs/rsfs10.tfm
INPUT /usr/local/texlive/2018/texmf-dist/fonts/tfm/public/rsfs/rsfs5.tfm
INPUT figure/l64c64a076_PX0PY0PZ0.pdf
INPUT ./figure/l64c64a076_PX0PY0PZ0.pdf
INPUT ./figure/l64c64a076_PX0PY0PZ0.pdf
INPUT figure/l64c64a076_PX0PY0PZ0_pion_mass.pdf
INPUT ./figure/l64c64a076_PX0PY0PZ0_pion_mass.pdf
INPUT ./figure/l64c64a076_PX0PY0PZ0_pion_mass.pdf
INPUT /usr/local/texlive/2018/texmf-dist/fonts/tfm/public/newtx/ntx-Bold-tlf-t1.tfm
INPUT /usr/local/texlive/2018/texmf-dist/fonts/tfm/public/newtx/ntx-Regular-tlf-ot1.tfm
INPUT /usr/local/texlive/2018/texmf-dist/fonts/tfm/public/newtx/ntx-Regular-tlf-ot1.tfm
INPUT /usr/local/texlive/2018/texmf-dist/fonts/tfm/public/newtx/ntx-Regular-tlf-ot1.tfm
INPUT /usr/local/texlive/2018/texmf-dist/fonts/tfm/public/newtx/ntxmi.tfm
INPUT /usr/local/texlive/2018/texmf-dist/fonts/tfm/public/newtx/ntxmi7.tfm
INPUT /usr/local/texlive/2018/texmf-dist/fonts/tfm/public/newtx/ntxmi5.tfm
INPUT /usr/local/texlive/2018/texmf-dist/fonts/tfm/public/newtx/ntxsy.tfm
INPUT /usr/local/texlive/2018/texmf-dist/fonts/tfm/public/newtx/ntxsy7.tfm
INPUT /usr/local/texlive/2018/texmf-dist/fonts/tfm/public/newtx/ntxsy5.tfm
INPUT /usr/local/texlive/2018/texmf-dist/fonts/tfm/public/newtx/ntxexx.tfm
INPUT /usr/local/texlive/2018/texmf-dist/fonts/tfm/public/newtx/ntxexx.tfm
INPUT /usr/local/texlive/2018/texmf-dist/fonts/tfm/public/newtx/ntxexx.tfm
INPUT /usr/local/texlive/2018/texmf-dist/fonts/tfm/public/newtx/ntxmia.tfm
INPUT /usr/local/texlive/2018/texmf-dist/fonts/tfm/public/newtx/ntxmia.tfm
INPUT /usr/local/texlive/2018/texmf-dist/fonts/tfm/public/newtx/ntxmia.tfm
INPUT /usr/local/texlive/2018/texmf-dist/fonts/tfm/public/newtx/ntxsym.tfm
INPUT /usr/local/texlive/2018/texmf-dist/fonts/tfm/public/newtx/ntxsym.tfm
INPUT /usr/local/texlive/2018/texmf-dist/fonts/tfm/public/newtx/ntxsym.tfm
INPUT /usr/local/texlive/2018/texmf-dist/fonts/tfm/public/newtx/ntxsyc.tfm
INPUT /usr/local/texlive/2018/texmf-dist/fonts/tfm/public/newtx/ntxsyc.tfm
INPUT /usr/local/texlive/2018/texmf-dist/fonts/tfm/public/newtx/ntxsyc.tfm
INPUT /usr/local/texlive/2018/texmf-dist/fonts/tfm/public/newtx/ntxexa.tfm
INPUT /usr/local/texlive/2018/texmf-dist/fonts/tfm/public/newtx/ntxexa.tfm
INPUT /usr/local/texlive/2018/texmf-dist/fonts/tfm/public/newtx/ntxexa.tfm
INPUT /usr/local/texlive/2018/texmf-dist/fonts/tfm/public/cm/cmex10.tfm
INPUT /usr/local/texlive/2018/texmf-dist/fonts/tfm/public/cm/cmex10.tfm
INPUT /usr/local/texlive/2018/texmf-dist/fonts/tfm/public/rsfs/rsfs10.tfm
INPUT /usr/local/texlive/2018/texmf-dist/fonts/tfm/public/rsfs/rsfs5.tfm
INPUT figure/l64c64a076_PX0PY0PZ0_inversion_timing.pdf
INPUT ./figure/l64c64a076_PX0PY0PZ0_inversion_timing.pdf
INPUT ./figure/l64c64a076_PX0PY0PZ0_inversion_timing.pdf
INPUT figure/l64c64a076_Effmass_bxp00_PX0PY0PZ0.pdf
INPUT ./figure/l64c64a076_Effmass_bxp00_PX0PY0PZ0.pdf
INPUT ./figure/l64c64a076_Effmass_bxp00_PX0PY0PZ0.pdf
INPUT figure/l64c64a076_Effmass_bxp00_PX1PY0PZ0.pdf
INPUT ./figure/l64c64a076_Effmass_bxp00_PX1PY0PZ0.pdf
INPUT ./figure/l64c64a076_Effmass_bxp00_PX1PY0PZ0.pdf
INPUT /usr/local/texlive/2018/texmf-var/fonts/map/pdftex/updmap/pdftex.map
INPUT /usr/local/texlive/2018/texmf-dist/fonts/vf/public/newtx/ntxmi.vf
INPUT /usr/local/texlive/2018/texmf-dist/fonts/tfm/public/txfonts/txmi.tfm
INPUT /usr/local/texlive/2018/texmf-dist/fonts/tfm/public/newtx/rntxmi.tfm
INPUT /usr/local/texlive/2018/texmf-dist/fonts/vf/public/txfonts/txmi.vf
INPUT /usr/local/texlive/2018/texmf-dist/fonts/tfm/public/txfonts/rtxmi.tfm
INPUT /usr/local/texlive/2018/texmf-dist/fonts/tfm/public/txfonts/rtxptmri.tfm
INPUT /usr/local/texlive/2018/texmf-dist/fonts/vf/public/newtx/ntxsy7.vf
INPUT /usr/local/texlive/2018/texmf-dist/fonts/tfm/public/newtx/txsys.tfm
INPUT /usr/local/texlive/2018/texmf-dist/fonts/tfm/public/newtx/txex-bar.tfm
INPUT /usr/local/texlive/2018/texmf-dist/fonts/vf/public/newtx/ntxmi7.vf
INPUT /usr/local/texlive/2018/texmf-dist/fonts/tfm/public/newtx/rtxmi7.tfm
INPUT /usr/local/texlive/2018/texmf-dist/fonts/tfm/public/newtx/rntxmi7.tfm
INPUT /usr/local/texlive/2018/texmf-dist/fonts/vf/public/newtx/ntxmia.vf
INPUT /usr/local/texlive/2018/texmf-dist/fonts/tfm/public/txfonts/txmia.tfm
INPUT /usr/local/texlive/2018/texmf-dist/fonts/tfm/public/newtx/ntxsyralt.tfm
INPUT /usr/local/texlive/2018/texmf-dist/fonts/tfm/public/newtx/zxlr-8r.tfm
INPUT /usr/local/texlive/2018/texmf-dist/fonts/tfm/public/txfonts/txsyc.tfm
INPUT /usr/local/texlive/2018/texmf-dist/fonts/tfm/public/txfonts/txr.tfm
INPUT /usr/local/texlive/2018/texmf-dist/fonts/tfm/public/newtx/ntxexb.tfm
INPUT /usr/local/texlive/2018/texmf-dist/fonts/tfm/public/newtx/rtxmio.tfm
INPUT /usr/local/texlive/2018/texmf-dist/fonts/tfm/public/txfonts/txsyb.tfm
INPUT /usr/local/texlive/2018/texmf-dist/fonts/tfm/adobe/times/ptmr8r.tfm
INPUT /usr/local/texlive/2018/texmf-dist/fonts/tfm/public/boondox/zxxrl7z.tfm
INPUT /usr/local/texlive/2018/texmf-dist/fonts/vf/public/txfonts/txr.vf
INPUT /usr/local/texlive/2018/texmf-dist/fonts/tfm/public/txfonts/rtxptmr.tfm
INPUT /usr/local/texlive/2018/texmf-dist/fonts/tfm/public/txfonts/rtxr.tfm
INPUT /usr/local/texlive/2018/texmf-dist/fonts/vf/public/newtx/ntxmi.vf
INPUT /usr/local/texlive/2018/texmf-dist/fonts/tfm/public/txfonts/txmi.tfm
INPUT /usr/local/texlive/2018/texmf-dist/fonts/tfm/public/newtx/rntxmi.tfm
INPUT /usr/local/texlive/2018/texmf-dist/fonts/vf/public/txfonts/txmi.vf
INPUT /usr/local/texlive/2018/texmf-dist/fonts/tfm/public/txfonts/rtxmi.tfm
INPUT /usr/local/texlive/2018/texmf-dist/fonts/tfm/public/txfonts/rtxptmri.tfm
INPUT /usr/local/texlive/2018/texmf-dist/fonts/vf/public/newtx/ntxmi7.vf
INPUT /usr/local/texlive/2018/texmf-dist/fonts/tfm/public/newtx/rtxmi7.tfm
INPUT /usr/local/texlive/2018/texmf-dist/fonts/tfm/public/newtx/rntxmi7.tfm
INPUT figure/l64c64a076_proton_Effmass_bxp00_PX0PY0PZ0.pdf
INPUT ./figure/l64c64a076_proton_Effmass_bxp00_PX0PY0PZ0.pdf
INPUT ./figure/l64c64a076_proton_Effmass_bxp00_PX0PY0PZ0.pdf
INPUT figure/l64c64a076_proton_Effmass_bxp00_PX1PY0PZ0.pdf
INPUT ./figure/l64c64a076_proton_Effmass_bxp00_PX1PY0PZ0.pdf
INPUT ./figure/l64c64a076_proton_Effmass_bxp00_PX1PY0PZ0.pdf
INPUT figure/l64c64a076_Effmass_CG45_bxp00-100_PX0PY0PZ0.pdf
INPUT ./figure/l64c64a076_Effmass_CG45_bxp00-100_PX0PY0PZ0.pdf
INPUT ./figure/l64c64a076_Effmass_CG45_bxp00-100_PX0PY0PZ0.pdf
INPUT figure/l64c64a076_Effmass_CG45_bxp00-100_PX1PY0PZ0.pdf
INPUT ./figure/l64c64a076_Effmass_CG45_bxp00-100_PX1PY0PZ0.pdf
INPUT ./figure/l64c64a076_Effmass_CG45_bxp00-100_PX1PY0PZ0.pdf
INPUT figure/l64c64a076_Effmass_CG45_bxp00-100_PX2PY0PZ0.pdf
INPUT ./figure/l64c64a076_Effmass_CG45_bxp00-100_PX2PY0PZ0.pdf
INPUT ./figure/l64c64a076_Effmass_CG45_bxp00-100_PX2PY0PZ0.pdf
INPUT figure/l64c64a076_Effmass_CG45_bxp00-100_PX3PY0PZ0.pdf
INPUT ./figure/l64c64a076_Effmass_CG45_bxp00-100_PX3PY0PZ0.pdf
INPUT ./figure/l64c64a076_Effmass_CG45_bxp00-100_PX3PY0PZ0.pdf
INPUT figure/l64c64a076_Effmass_CG45_bxp00-100_PX4PY0PZ0.pdf
INPUT ./figure/l64c64a076_Effmass_CG45_bxp00-100_PX4PY0PZ0.pdf
INPUT ./figure/l64c64a076_Effmass_CG45_bxp00-100_PX4PY0PZ0.pdf
INPUT figure/l64c64a076_Effmass_CG45_bxp00-100_PX5PY0PZ0.pdf
INPUT ./figure/l64c64a076_Effmass_CG45_bxp00-100_PX5PY0PZ0.pdf
INPUT ./figure/l64c64a076_Effmass_CG45_bxp00-100_PX5PY0PZ0.pdf
INPUT figure/l64c64a076_Effmass_CG45_bxp00-100_PX6PY0PZ0.pdf
INPUT ./figure/l64c64a076_Effmass_CG45_bxp00-100_PX6PY0PZ0.pdf
INPUT ./figure/l64c64a076_Effmass_CG45_bxp00-100_PX6PY0PZ0.pdf
INPUT figure/l64c64a076_Effmass_CG45_bxp00-100_PX7PY0PZ0.pdf
INPUT ./figure/l64c64a076_Effmass_CG45_bxp00-100_PX7PY0PZ0.pdf
INPUT ./figure/l64c64a076_Effmass_CG45_bxp00-100_PX7PY0PZ0.pdf
INPUT figure/l64c64a076_Effmass_CG45_bxp00-100_PX8PY0PZ0.pdf
INPUT ./figure/l64c64a076_Effmass_CG45_bxp00-100_PX8PY0PZ0.pdf
INPUT ./figure/l64c64a076_Effmass_CG45_bxp00-100_PX8PY0PZ0.pdf
INPUT figure/l64c64a076_Effmass_CG45_bxp00-100_PX9PY0PZ0.pdf
INPUT ./figure/l64c64a076_Effmass_CG45_bxp00-100_PX9PY0PZ0.pdf
INPUT ./figure/l64c64a076_Effmass_CG45_bxp00-100_PX9PY0PZ0.pdf
INPUT figure/l64c64a076_proton_Effmass_CG45_bxp00-100_PX0PY0PZ0.pdf
INPUT ./figure/l64c64a076_proton_Effmass_CG45_bxp00-100_PX0PY0PZ0.pdf
INPUT ./figure/l64c64a076_proton_Effmass_CG45_bxp00-100_PX0PY0PZ0.pdf
INPUT figure/l64c64a076_proton_Effmass_CG45_bxp00-100_PX1PY0PZ0.pdf
INPUT ./figure/l64c64a076_proton_Effmass_CG45_bxp00-100_PX1PY0PZ0.pdf
INPUT ./figure/l64c64a076_proton_Effmass_CG45_bxp00-100_PX1PY0PZ0.pdf
INPUT figure/l64c64a076_proton_Effmass_CG45_bxp00-100_PX2PY0PZ0.pdf
INPUT ./figure/l64c64a076_proton_Effmass_CG45_bxp00-100_PX2PY0PZ0.pdf
INPUT ./figure/l64c64a076_proton_Effmass_CG45_bxp00-100_PX2PY0PZ0.pdf
INPUT figure/l64c64a076_proton_Effmass_CG45_bxp00-100_PX3PY0PZ0.pdf
INPUT ./figure/l64c64a076_proton_Effmass_CG45_bxp00-100_PX3PY0PZ0.pdf
INPUT ./figure/l64c64a076_proton_Effmass_CG45_bxp00-100_PX3PY0PZ0.pdf
INPUT figure/l64c64a076_proton_Effmass_CG45_bxp00-100_PX4PY0PZ0.pdf
INPUT ./figure/l64c64a076_proton_Effmass_CG45_bxp00-100_PX4PY0PZ0.pdf
INPUT ./figure/l64c64a076_proton_Effmass_CG45_bxp00-100_PX4PY0PZ0.pdf
INPUT figure/l64c64a076_proton_Effmass_CG45_bxp00-100_PX5PY0PZ0.pdf
INPUT ./figure/l64c64a076_proton_Effmass_CG45_bxp00-100_PX5PY0PZ0.pdf
INPUT ./figure/l64c64a076_proton_Effmass_CG45_bxp00-100_PX5PY0PZ0.pdf
INPUT figure/l64c64a076_proton_Effmass_CG45_bxp00-100_PX6PY0PZ0.pdf
INPUT ./figure/l64c64a076_proton_Effmass_CG45_bxp00-100_PX6PY0PZ0.pdf
INPUT ./figure/l64c64a076_proton_Effmass_CG45_bxp00-100_PX6PY0PZ0.pdf
INPUT figure/l64c64a076_proton_Effmass_CG45_bxp00-100_PX7PY0PZ0.pdf
INPUT ./figure/l64c64a076_proton_Effmass_CG45_bxp00-100_PX7PY0PZ0.pdf
INPUT ./figure/l64c64a076_proton_Effmass_CG45_bxp00-100_PX7PY0PZ0.pdf
INPUT figure/l64c64a076_proton_Effmass_CG45_bxp00-100_PX8PY0PZ0.pdf
INPUT ./figure/l64c64a076_proton_Effmass_CG45_bxp00-100_PX8PY0PZ0.pdf
INPUT ./figure/l64c64a076_proton_Effmass_CG45_bxp00-100_PX8PY0PZ0.pdf
INPUT figure/l64c64a076_proton_Effmass_CG45_bxp00-100_PX9PY0PZ0.pdf
INPUT ./figure/l64c64a076_proton_Effmass_CG45_bxp00-100_PX9PY0PZ0.pdf
INPUT ./figure/l64c64a076_proton_Effmass_CG45_bxp00-100_PX9PY0PZ0.pdf
INPUT /usr/local/texlive/2018/texmf-dist/fonts/tfm/public/newtx/ntx-Bold-tlf-t1.tfm
INPUT figure/l64c64a076_pion_Effmass_CG45_bxp2_5_6_PX0PY0PZ0.pdf
INPUT ./figure/l64c64a076_pion_Effmass_CG45_bxp2_5_6_PX0PY0PZ0.pdf
INPUT ./figure/l64c64a076_pion_Effmass_CG45_bxp2_5_6_PX0PY0PZ0.pdf
INPUT figure/l64c64a076_pion_Effmass_CG45_bxp2_5_6_PX1PY0PZ0.pdf
INPUT ./figure/l64c64a076_pion_Effmass_CG45_bxp2_5_6_PX1PY0PZ0.pdf
INPUT ./figure/l64c64a076_pion_Effmass_CG45_bxp2_5_6_PX1PY0PZ0.pdf
INPUT figure/l64c64a076_pion_Effmass_CG45_bxp2_5_6_PX2PY0PZ0.pdf
INPUT ./figure/l64c64a076_pion_Effmass_CG45_bxp2_5_6_PX2PY0PZ0.pdf
INPUT ./figure/l64c64a076_pion_Effmass_CG45_bxp2_5_6_PX2PY0PZ0.pdf
INPUT figure/l64c64a076_pion_Effmass_CG45_bxp2_5_6_PX3PY0PZ0.pdf
INPUT ./figure/l64c64a076_pion_Effmass_CG45_bxp2_5_6_PX3PY0PZ0.pdf
INPUT ./figure/l64c64a076_pion_Effmass_CG45_bxp2_5_6_PX3PY0PZ0.pdf
INPUT figure/l64c64a076_pion_Effmass_CG45_bxp2_5_6_PX4PY0PZ0.pdf
INPUT ./figure/l64c64a076_pion_Effmass_CG45_bxp2_5_6_PX4PY0PZ0.pdf
INPUT ./figure/l64c64a076_pion_Effmass_CG45_bxp2_5_6_PX4PY0PZ0.pdf
INPUT figure/l64c64a076_pion_Effmass_CG45_bxp2_5_6_PX5PY0PZ0.pdf
INPUT ./figure/l64c64a076_pion_Effmass_CG45_bxp2_5_6_PX5PY0PZ0.pdf
INPUT ./figure/l64c64a076_pion_Effmass_CG45_bxp2_5_6_PX5PY0PZ0.pdf
INPUT figure/l64c64a076_pion_Effmass_CG45_bxp2_5_6_PX6PY0PZ0.pdf
INPUT ./figure/l64c64a076_pion_Effmass_CG45_bxp2_5_6_PX6PY0PZ0.pdf
INPUT ./figure/l64c64a076_pion_Effmass_CG45_bxp2_5_6_PX6PY0PZ0.pdf
INPUT figure/l64c64a076_pion_Effmass_CG45_bxp2_5_6_PX7PY0PZ0.pdf
INPUT ./figure/l64c64a076_pion_Effmass_CG45_bxp2_5_6_PX7PY0PZ0.pdf
INPUT ./figure/l64c64a076_pion_Effmass_CG45_bxp2_5_6_PX7PY0PZ0.pdf
INPUT figure/l64c64a076_pion_Effmass_CG45_bxp2_5_6_PX8PY0PZ0.pdf
INPUT ./figure/l64c64a076_pion_Effmass_CG45_bxp2_5_6_PX8PY0PZ0.pdf
INPUT ./figure/l64c64a076_pion_Effmass_CG45_bxp2_5_6_PX8PY0PZ0.pdf
INPUT figure/l64c64a076_pion_Effmass_CG45_bxp2_5_6_PX9PY0PZ0.pdf
INPUT ./figure/l64c64a076_pion_Effmass_CG45_bxp2_5_6_PX9PY0PZ0.pdf
INPUT ./figure/l64c64a076_pion_Effmass_CG45_bxp2_5_6_PX9PY0PZ0.pdf
INPUT figure/l64c64a076_proton_Effmass_CG45_bxp2_5_6_PX0PY0PZ0.pdf
INPUT ./figure/l64c64a076_proton_Effmass_CG45_bxp2_5_6_PX0PY0PZ0.pdf
INPUT ./figure/l64c64a076_proton_Effmass_CG45_bxp2_5_6_PX0PY0PZ0.pdf
INPUT figure/l64c64a076_proton_Effmass_CG45_bxp2_5_6_PX1PY0PZ0.pdf
INPUT ./figure/l64c64a076_proton_Effmass_CG45_bxp2_5_6_PX1PY0PZ0.pdf
INPUT ./figure/l64c64a076_proton_Effmass_CG45_bxp2_5_6_PX1PY0PZ0.pdf
INPUT figure/l64c64a076_proton_Effmass_CG45_bxp2_5_6_PX2PY0PZ0.pdf
INPUT ./figure/l64c64a076_proton_Effmass_CG45_bxp2_5_6_PX2PY0PZ0.pdf
INPUT ./figure/l64c64a076_proton_Effmass_CG45_bxp2_5_6_PX2PY0PZ0.pdf
INPUT figure/l64c64a076_proton_Effmass_CG45_bxp2_5_6_PX3PY0PZ0.pdf
INPUT ./figure/l64c64a076_proton_Effmass_CG45_bxp2_5_6_PX3PY0PZ0.pdf
INPUT ./figure/l64c64a076_proton_Effmass_CG45_bxp2_5_6_PX3PY0PZ0.pdf
INPUT figure/l64c64a076_proton_Effmass_CG45_bxp2_5_6_PX4PY0PZ0.pdf
INPUT ./figure/l64c64a076_proton_Effmass_CG45_bxp2_5_6_PX4PY0PZ0.pdf
INPUT ./figure/l64c64a076_proton_Effmass_CG45_bxp2_5_6_PX4PY0PZ0.pdf
INPUT figure/l64c64a076_proton_Effmass_CG45_bxp2_5_6_PX5PY0PZ0.pdf
INPUT ./figure/l64c64a076_proton_Effmass_CG45_bxp2_5_6_PX5PY0PZ0.pdf
INPUT ./figure/l64c64a076_proton_Effmass_CG45_bxp2_5_6_PX5PY0PZ0.pdf
INPUT figure/l64c64a076_proton_Effmass_CG45_bxp2_5_6_PX6PY0PZ0.pdf
INPUT ./figure/l64c64a076_proton_Effmass_CG45_bxp2_5_6_PX6PY0PZ0.pdf
INPUT ./figure/l64c64a076_proton_Effmass_CG45_bxp2_5_6_PX6PY0PZ0.pdf
INPUT figure/l64c64a076_proton_Effmass_CG45_bxp2_5_6_PX7PY0PZ0.pdf
INPUT ./figure/l64c64a076_proton_Effmass_CG45_bxp2_5_6_PX7PY0PZ0.pdf
INPUT ./figure/l64c64a076_proton_Effmass_CG45_bxp2_5_6_PX7PY0PZ0.pdf
INPUT figure/l64c64a076_proton_Effmass_CG45_bxp2_5_6_PX8PY0PZ0.pdf
INPUT ./figure/l64c64a076_proton_Effmass_CG45_bxp2_5_6_PX8PY0PZ0.pdf
INPUT ./figure/l64c64a076_proton_Effmass_CG45_bxp2_5_6_PX8PY0PZ0.pdf
INPUT figure/l64c64a076_proton_Effmass_CG45_bxp2_5_6_PX9PY0PZ0.pdf
INPUT ./figure/l64c64a076_proton_Effmass_CG45_bxp2_5_6_PX9PY0PZ0.pdf
INPUT ./figure/l64c64a076_proton_Effmass_CG45_bxp2_5_6_PX9PY0PZ0.pdf
INPUT main.aux
INPUT ./main.out
INPUT ./main.out
INPUT /usr/local/texlive/2018/texmf-dist/fonts/enc/dvips/newtx/ntx-ot1-tlf.enc
INPUT /usr/local/texlive/2018/texmf-dist/fonts/enc/dvips/base/8r.enc
INPUT /usr/local/texlive/2018/texmf-dist/fonts/enc/dvips/newtx/ntx-ec-tlf.enc
INPUT /usr/local/texlive/2018/texmf-dist/fonts/type1/public/tex-gyre/qtmb.pfb
INPUT /usr/local/texlive/2018/texmf-dist/fonts/type1/public/tex-gyre/qtmr.pfb
INPUT /usr/local/texlive/2018/texmf-dist/fonts/type1/public/tex-gyre/qtmri.pfb
INPUT /usr/local/texlive/2018/texmf-dist/fonts/type1/public/newtx/rntxmi7.pfb
INPUT /usr/local/texlive/2018/texmf-dist/fonts/type1/public/txfonts/rtxmi.pfb
INPUT /usr/local/texlive/2018/texmf-dist/fonts/type1/public/newtx/rtxmi7.pfb
INPUT /usr/local/texlive/2018/texmf-dist/fonts/type1/public/txfonts/rtxr.pfb
INPUT /usr/local/texlive/2018/texmf-dist/fonts/type1/public/newtx/txsys.pfb
INPUT /usr/local/texlive/2018/texmf-dist/fonts/type1/urw/times/utmri8a.pfb
